error[E0277]: the trait bound `String: AsStr` is not satisfied
 --> tests/errors/enum_variant_not_impls_trait.rs:3:1
  |
3 |   #[delegate]
  |   -^^^^^^^^^^
  |   |
  |  _the trait `AsStr` is not implemented for `String`
  | |
4 | | trait AsStr {
5 | |     fn as_str(&self) -> &str;
  | |_____________- required by a bound introduced by this call
...
8 |   #[delegate(derive(AsStr))]
  |   -------------------------- in this procedural macro expansion
  |
  = help: the following other types implement trait `AsStr`:
            Name
            enum_delegate::__macros::Wrapper<__Delegate>
note: required for `Either<String, Void>` to implement `__delegate_AsStr__DelegateOwned`
 --> tests/errors/enum_variant_not_impls_trait.rs:3:1
  |
3 | #[delegate]
  | ^^^^^^^^^^^
4 | trait AsStr {
  |       ^^^^^ unsatisfied trait bound introduced here
note: required for `enum_delegate::__macros::Wrapper<Name>` to implement `AsStr`
 --> tests/errors/enum_variant_not_impls_trait.rs:3:1
  |
3 | #[delegate]
  | ^^^^^^^^^^^
4 | trait AsStr {
  |       ^^^^^ unsatisfied trait bound introduced here
  = note: this error originates in the macro `AsStr` which comes from the expansion of the attribute macro `delegate` (in Nightly builds, run with -Z macro-backtrace for more info)
