error[E0277]: the trait bound `Either<T, T>: Convert` is not satisfied
 --> tests/errors/external_type_without_attr.rs:3:1
  |
3 |   #[delegate(for(for<T: AsStr> Either<T, T>))]
  |   -^^^^^^^^^^^^^^^^^^^^^^^^^^^^^^^^^^^^^^^^^^^
  |   |
  |  _the trait `Convert` is not implemented for `Either<T, T>`
  | |
4 | | trait AsStr {
5 | |     fn as_str(&self) -> &str;
  | |_____________- required by a bound introduced by this call
  |
  = help: the trait `AsStr` is implemented for `enum_delegate::__macros::Wrapper<__Delegate>`
note: required for `enum_delegate::__macros::Wrapper<Either<T, T>>` to implement `AsStr`
 --> tests/errors/external_type_without_attr.rs:3:1
  |
3 | #[delegate(for(for<T: AsStr> Either<T, T>))]
  | ^^^^^^^^^^^^^^^^^^^^^^^^^^^^^^^^^^^^^^^^^^^^
4 | trait AsStr {
  |       ^^^^^
  = note: this error originates in the macro `AsStr` which comes from the expansion of the attribute macro `delegate` (in Nightly builds, run with -Z macro-backtrace for more info)
